Assignment: Methodology
…
usenet_words <- cleaned_text %>%
  unnest_tokens(word, text) %>%
  filter(str_detect(word, "[a-z']$"),
         !word %in% stop_words$word)

usenet_words %>%
  count(word, sort = TRUE)

# A tibble: 5,807 x 2
   word           n
   <chr>      <int>
 1 kronos      1868
 2 gastech     1331
 3 abila        956
 4 government   883
 5 published    726
 6 pok          688
 7 police       605
 8 title        577
 9 location     563
10 elodis       509
# ... with 5,797 more rows
…
bigrams <- cleaned_text %>%
  unnest_tokens(bigram,
                text,
                token = "ngrams",
                n=2)

bigrams_count <- bigrams %>%
  filter(bigram != 'NA') %>%
  count(bigram, sort = TRUE)

bigrams_count

# A tibble: 41,849 x 2
   bigram             n
   <chr>          <int>
 1 of the          2626
 2 of kronos        784
 3 to the           744
 4 in the           689
 5 and the          510
 6 the government   456
 7 abila kronos     438
 8 of gastech       430
 9 location abila   416
10 with the         386
# ... with 41,839 more rows

bigrams_separated <- bigrams %>%
  filter(bigram != 'NA') %>%
  separate(bigram, c("word1", "word2"),
           sep = " ")

bigrams_filtered <- bigrams_separated %>%
  filter(!word1 %in% stop_words$word) %>%
  filter(!word2 %in% stop_words$word)

bigrams_filtered

# A tibble: 25,969 x 4
   newsgroup      id      word1     word2       
   <chr>          <chr>   <chr>     <chr>       
 1 All News Today 121.txt title     pok         
 2 All News Today 121.txt pok       protests    
 3 All News Today 121.txt published 2005        
 4 All News Today 121.txt 2005      04          
 5 All News Today 121.txt 04        06          
 6 All News Today 121.txt location  elodis      
 7 All News Today 121.txt elodis    kronos      
 8 All News Today 121.txt kronos    pok         
 9 All News Today 121.txt pok       activist    
10 All News Today 121.txt activist  organization
# ... with 25,959 more rows
…
